chapter5_p2
…
Exercise 5.7

Question 1

each operation works on the group instead of an individual data point.

Question 2

not_cancelled %>%
  group_by(tailnum) %>%
  mutate(avg_delay = mean(arr_delay)) %>%
  select(tailnum, avg_delay) %>%
  arrange(desc(avg_delay))

## Source: local data frame [327,346 x 2]
## Groups: tailnum [4,037]
## 
##    tailnum avg_delay
##      <chr>     <dbl>
## 1   N844MH  320.0000
## 2   N911DA  294.0000
## 3   N922EV  276.0000
## 4   N587NW  264.0000
## 5   N851NW  219.0000
## 6   N928DN  201.0000
## 7   N7715E  188.0000
## 8   N654UA  185.0000
## 9   N665MQ  174.6667
## 10  N665MQ  174.6667
## # ... with 327,336 more rows
…
not_cancelled %>%
  group_by(dest) %>%
  mutate(avg_flight = mean(air_time),
         fast_flight = (air_time - avg_flight)/avg_flight) %>%
  arrange(fast_flight)

## Source: local data frame [327,346 x 18]
## Groups: dest [104]
## 
##     year month   day dep_time dep_delay arr_time arr_delay carrier tailnum
##    <int> <int> <int>    <int>     <dbl>    <int>     <dbl>   <chr>   <chr>
## 1   2013     3     2     1450       -10     1547       -21      US  N947UW
## 2   2013     5    25     1709         9     1923       -14      DL  N666DN
## 3   2013     5    13     2040        15     2225        -1      EV  N14568
## 4   2013     1    25     1954        -6     2131        17      US  N947UW
## 5   2013     3    23     1914         4     2045         2      EV  N12567
## 6   2013     7     2     1558        45     1745        26      EV  N17196
## 7   2013     2     3     2153        24     2247        23      EV  N13913
## 8   2013     2    12     2123        -7     2211       -14      EV  N12921
## 9   2013     3     8     2026        51     2131        35      9E  N8501F
## 10  2013     9    29     1359        16     1523       -22      EV  N11544
## # ... with 327,336 more rows, and 9 more variables: flight <int>,
## #   origin <chr>, dest <chr>, air_time <dbl>, distance <dbl>, hour <dbl>,
## #   minute <dbl>, avg_flight <dbl>, fast_flight <dbl>

not_cancelled %>%
  group_by(dest) %>%
  mutate(time_diff = air_time - mean(air_time)) %>%
  arrange(desc(time_diff))

## Source: local data frame [327,346 x 17]
## Groups: dest [104]
## 
##     year month   day dep_time dep_delay arr_time arr_delay carrier tailnum
##    <int> <int> <int>    <int>     <dbl>    <int>     <dbl>   <chr>   <chr>
## 1   2013     7    28     1727        -3     2242        92      DL  N703TW
## 2   2013     1    28     1806        66     2253       183      AA  N5DBAA
## 3   2013    11    22     1812        -3     2302        76      DL  N178DN
## 4   2013     9    10     1513         6     1914       105      UA  N578UA
## 5   2013     6    29      755        -5     1035        86      B6  N328JB
## 6   2013    11    22     2142       253      143       330      UA  N852UA
## 7   2013     7    10     1814        -1     2240        65      DL  N192DN
## 8   2013     1     2     2225       175      231       252      EV  N21130
## 9   2013    12     6     1727        -3     2206        54      DL  N727TW
## 10  2013     1    15     1957        22       15       115      EV  N16149
## # ... with 327,336 more rows, and 8 more variables: flight <int>,
## #   origin <chr>, dest <chr>, air_time <dbl>, distance <dbl>, hour <dbl>,
## #   minute <dbl>, time_diff <dbl>
…
